[
  {
    "name": "CustomlayoutPlugin",
    "version": "0.0.0",
    "class": "CustomlayoutPlugin",
    "requires": [
      {
        "@twilio/flex-ui": "^1"
      }
    ],
    "src": "http://127.0.0.1:8085"
  }
]
